^C:\USERS\ANNA\DOCUMENTS\UIR\MY_COURSE_TASK\METEO_TAF\METEO_TAF\X64\DEBUG\HIERARCHICALHEADERVIEW.OBJ|C:\USERS\ANNA\DOCUMENTS\UIR\MY_COURSE_TASK\METEO_TAF\METEO_TAF\X64\DEBUG\MAIN.OBJ|C:\USERS\ANNA\DOCUMENTS\UIR\MY_COURSE_TASK\METEO_TAF\METEO_TAF\X64\DEBUG\MAINWINDOW.OBJ|C:\USERS\ANNA\DOCUMENTS\UIR\MY_COURSE_TASK\METEO_TAF\METEO_TAF\X64\DEBUG\MOC_HIERARCHICALHEADERVIEW.OBJ|C:\USERS\ANNA\DOCUMENTS\UIR\MY_COURSE_TASK\METEO_TAF\METEO_TAF\X64\DEBUG\MOC_MAINWINDOW.OBJ|C:\USERS\ANNA\DOCUMENTS\UIR\MY_COURSE_TASK\METEO_TAF\METEO_TAF\X64\DEBUG\MOC_TREEMODEL.OBJ|C:\USERS\ANNA\DOCUMENTS\UIR\MY_COURSE_TASK\METEO_TAF\METEO_TAF\X64\DEBUG\QRC_MAINWINDOW.OBJ|C:\USERS\ANNA\DOCUMENTS\UIR\MY_COURSE_TASK\METEO_TAF\METEO_TAF\X64\DEBUG\TAF-DATA.PB.OBJ|C:\USERS\ANNA\DOCUMENTS\UIR\MY_COURSE_TASK\METEO_TAF\METEO_TAF\X64\DEBUG\TAFITEM.OBJ|C:\USERS\ANNA\DOCUMENTS\UIR\MY_COURSE_TASK\METEO_TAF\METEO_TAF\X64\DEBUG\TREEMODEL.OBJ
C:\USERS\ANNA\DOCUMENTS\UIR\MY_COURSE_TASK\METEO_TAF\X64\DEBUG\METEO_TAF.ILK
C:\USERS\ANNA\DOCUMENTS\UIR\MY_COURSE_TASK\METEO_TAF\X64\DEBUG\METEO_TAF.EXE
C:\USERS\ANNA\DOCUMENTS\UIR\MY_COURSE_TASK\METEO_TAF\X64\DEBUG\METEO_TAF.PDB
